{
  "code": 0,
  "msg": "successfully",
  "data": [
    {
      "id": "1",
      "thumbnail": "https://laptop88.vn//media/news/2999_game_online_10.png",
      "leagueName": "Tama Game Center",
      "leagueLogo": "https://i.imgur.com/8qvtepL.png",
      "title": "Black Desert",
      "subTitle": "PG Soft Game",
      "currentViewer": 3548,
      "roomNumber": 1211059
    },
    {
      "id": "2",
      "thumbnail": "https://codecombat.com/images/pages/teachers/hour-of-code/goblins-n-glory.png",
      "leagueName": "Tama Game Center",
      "leagueLogo": "https://i.imgur.com/8qvtepL.png",
      "title": "Code Combat",
      "subTitle": "CHUU",
      "currentViewer": 1232,
      "roomNumber": 1211019
    },
    {
      "id": "3",
      "thumbnail": "https://i.imgur.com/gVVMULT.png",
      "leagueName": "Tama Game Center",
      "leagueLogo": "https://i.imgur.com/8qvtepL.png",
      "title": "Share app to your friends now",
      "subTitle": "DUCKY",
      "currentViewer": 2999,
      "roomNumber": 1211049
    }
  ]
}
